﻿{
  "$schema": "http://json.schemastore.org/launchsettings.json",
  "profiles": {
    "hello_blog_api": {
      "commandName": "Project",
      "dotnetRunMessages": "true",
      "launchBrowser": true,
      "launchUrl": "swagger",
      "applicationUrl": "http://localhost:5000",
      "environmentVariables": {
        
      }
    }
  }
}
